﻿{
  "ModName": "F",
  "ModDescription": "used for testing",
  "ModAuthor": "ketura",
  "ModVersion": "1.2.3.4",
  "ModID": "00000000-0000-0000-0000-00000000000F",
  "RequestedLoadPriority": "Normal",
	"RequestedRunPriority": "Normal",
  "RequiredMods": [
  ],
  "ConflictingMods": [
  ],
  "LoadTheseBefore": [
  ],
  "LoadTheseAfter": [

  ]  
}